{
  "version": "14.0.0",
  "vulnerabilities": [
    {
      "id": "fa6413354200f59a563b678d20655c95becfe30b79c0cda1f08075328f2db11e",
      "category": "secret_detection",
      "name": "RSA private key",
      "message": "RSA private key detected; please remove and revoke it if this is a leak.",
      "description": "RSA private key",
      "cve": "id_rsa:8bcac7908eb950419537b91e19adc83ce2c9cbfdacf4f81157fdadfec11f7017:RSA private key",
      "severity": "Critical",
      "confidence": "Unknown",
      "raw_source_code_extract": "-----BEGIN RSA PRIVATE KEY-----",
      "scanner": {
        "id": "gitleaks",
        "name": "Gitleaks"
      },
      "location": {
        "file": "id_rsa",
        "commit": {
          "date": "0001-01-01T00:00:00Z",
          "sha": "0000000"
        },
        "start_line": 1,
        "end_line": 1
      },
      "identifiers": [
        {
          "type": "gitleaks_rule_id",
          "name": "Gitleaks rule ID RSA private key",
          "value": "RSA private key"
        }
      ]
    },
    {
      "id": "b26cd824d7c76addbaddb4ca4234031f6da61ebef3074e5930b1fc95e590eab2",
      "category": "secret_detection",
      "name": "AWS",
      "message": "AWS detected; please remove and revoke it if this is a leak.",
      "description": "AWS",
      "cve": "keys/aws:4dc0376c1c8fd35a454f62ea011e80b28b512fdea09cfb476169ed4ca26c1460:AWS",
      "severity": "Critical",
      "confidence": "Unknown",
      "raw_source_code_extract": "AKIAXYZDQCENR3HDDQGL",
      "scanner": {
        "id": "gitleaks",
        "name": "Gitleaks"
      },
      "location": {
        "file": "keys/aws",
        "commit": {
          "date": "0001-01-01T00:00:00Z",
          "sha": "0000000"
        },
        "start_line": 2,
        "end_line": 2
      },
      "identifiers": [
        {
          "type": "gitleaks_rule_id",
          "name": "Gitleaks rule ID AWS",
          "value": "AWS"
        }
      ]
    },
    {
      "id": "afe6d6c68aea8f94a99ebc3b44ab5a523013f0d3265c64d2d9c4b70106f0176a",
      "category": "secret_detection",
      "name": "SSH private key",
      "message": "SSH private key detected; please remove and revoke it if this is a leak.",
      "description": "SSH private key",
      "cve": "keys/dsa_key:03d104c669e3c7b6be7f989db8b12c8b910d3be8c1e2a73c9369d3cc0ba803b5:SSH private key",
      "severity": "Critical",
      "confidence": "Unknown",
      "raw_source_code_extract": "-----BEGIN OPENSSH PRIVATE KEY-----",
      "scanner": {
        "id": "gitleaks",
        "name": "Gitleaks"
      },
      "location": {
        "file": "keys/dsa_key",
        "commit": {
          "date": "0001-01-01T00:00:00Z",
          "sha": "0000000"
        },
        "start_line": 1,
        "end_line": 1
      },
      "identifiers": [
        {
          "type": "gitleaks_rule_id",
          "name": "Gitleaks rule ID SSH private key",
          "value": "SSH private key"
        }
      ]
    },
    {
      "id": "7fafa9f91f52ffcd6c46a51b624b256121f35f37f0293fd118c444f387315b97",
      "category": "secret_detection",
      "name": "SSH private key",
      "message": "SSH private key detected; please remove and revoke it if this is a leak.",
      "description": "SSH private key",
      "cve": "keys/ecdsa_key:03d104c669e3c7b6be7f989db8b12c8b910d3be8c1e2a73c9369d3cc0ba803b5:SSH private key",
      "severity": "Critical",
      "confidence": "Unknown",
      "raw_source_code_extract": "-----BEGIN OPENSSH PRIVATE KEY-----",
      "scanner": {
        "id": "gitleaks",
        "name": "Gitleaks"
      },
      "location": {
        "file": "keys/ecdsa_key",
        "commit": {
          "date": "0001-01-01T00:00:00Z",
          "sha": "0000000"
        },
        "start_line": 1,
        "end_line": 1
      },
      "identifiers": [
        {
          "type": "gitleaks_rule_id",
          "name": "Gitleaks rule ID SSH private key",
          "value": "SSH private key"
        }
      ]
    },
    {
      "id": "2592c7b7da6b2f8191dccf53898f58c9a0fa3422d7000722ee3372ddf0747008",
      "category": "secret_detection",
      "name": "SSH private key",
      "message": "SSH private key detected; please remove and revoke it if this is a leak.",
      "description": "SSH private key",
      "cve": "keys/ed25519_key:03d104c669e3c7b6be7f989db8b12c8b910d3be8c1e2a73c9369d3cc0ba803b5:SSH private key",
      "severity": "Critical",
      "confidence": "Unknown",
      "raw_source_code_extract": "-----BEGIN OPENSSH PRIVATE KEY-----",
      "scanner": {
        "id": "gitleaks",
        "name": "Gitleaks"
      },
      "location": {
        "file": "keys/ed25519_key",
        "commit": {
          "date": "0001-01-01T00:00:00Z",
          "sha": "0000000"
        },
        "start_line": 1,
        "end_line": 1
      },
      "identifiers": [
        {
          "type": "gitleaks_rule_id",
          "name": "Gitleaks rule ID SSH private key",
          "value": "SSH private key"
        }
      ]
    },
    {
      "id": "92b544e2eaea5c0db4f4729a20fffc94a7a509e85e087875491b30860f3ef15e",
      "category": "secret_detection",
      "name": "PGP private key",
      "message": "PGP private key detected; please remove and revoke it if this is a leak.",
      "description": "PGP private key",
      "cve": "keys/pgp_ecc_key:8a1ddaa7dab83b9a5ffe092bc3aad1df30c2e0be6246aee0a0da616d628d1da7:PGP private key",
      "severity": "Critical",
      "confidence": "Unknown",
      "raw_source_code_extract": "-----BEGIN PGP PRIVATE KEY BLOCK-----",
      "scanner": {
        "id": "gitleaks",
        "name": "Gitleaks"
      },
      "location": {
        "file": "keys/pgp_ecc_key",
        "commit": {
          "date": "0001-01-01T00:00:00Z",
          "sha": "0000000"
        },
        "start_line": 1,
        "end_line": 1
      },
      "identifiers": [
        {
          "type": "gitleaks_rule_id",
          "name": "Gitleaks rule ID PGP private key",
          "value": "PGP private key"
        }
      ]
    },
    {
      "id": "07c77e3cc2500ffe9afc38f9bdf2096692cd5cdd2874c7555e1573df69764851",
      "category": "secret_detection",
      "name": "PGP private key",
      "message": "PGP private key detected; please remove and revoke it if this is a leak.",
      "description": "PGP private key",
      "cve": "keys/pgp_rsa_key:8a1ddaa7dab83b9a5ffe092bc3aad1df30c2e0be6246aee0a0da616d628d1da7:PGP private key",
      "severity": "Critical",
      "confidence": "Unknown",
      "raw_source_code_extract": "-----BEGIN PGP PRIVATE KEY BLOCK-----",
      "scanner": {
        "id": "gitleaks",
        "name": "Gitleaks"
      },
      "location": {
        "file": "keys/pgp_rsa_key",
        "commit": {
          "date": "0001-01-01T00:00:00Z",
          "sha": "0000000"
        },
        "start_line": 1,
        "end_line": 1
      },
      "identifiers": [
        {
          "type": "gitleaks_rule_id",
          "name": "Gitleaks rule ID PGP private key",
          "value": "PGP private key"
        }
      ]
    },
    {
      "id": "bf82297b82e50839baebd8856676337081dbbb175765e7cf5c601e3dd578b28c",
      "category": "secret_detection",
      "name": "SSH private key",
      "message": "SSH private key detected; please remove and revoke it if this is a leak.",
      "description": "SSH private key",
      "cve": "keys/rsa_key:03d104c669e3c7b6be7f989db8b12c8b910d3be8c1e2a73c9369d3cc0ba803b5:SSH private key",
      "severity": "Critical",
      "confidence": "Unknown",
      "raw_source_code_extract": "-----BEGIN OPENSSH PRIVATE KEY-----",
      "scanner": {
        "id": "gitleaks",
        "name": "Gitleaks"
      },
      "location": {
        "file": "keys/rsa_key",
        "commit": {
          "date": "0001-01-01T00:00:00Z",
          "sha": "0000000"
        },
        "start_line": 1,
        "end_line": 1
      },
      "identifiers": [
        {
          "type": "gitleaks_rule_id",
          "name": "Gitleaks rule ID SSH private key",
          "value": "SSH private key"
        }
      ]
    },
    {
      "id": "a1b03450bb9982b1ccff2236efbd3e8b4ae205a412a24cff53b63be94a6b2758",
      "category": "secret_detection",
      "name": "Slack token",
      "message": "Slack token detected; please remove and revoke it if this is a leak.",
      "description": "Slack token",
      "cve": "keys/slack_key:a3d4d73ddd6fdcb519e9be3e834a091ff75a8a4a193f7378e9ed3a4cfdb6839c:Slack token",
      "severity": "Critical",
      "confidence": "Unknown",
      "raw_source_code_extract": "xoxp-905439787527",
      "scanner": {
        "id": "gitleaks",
        "name": "Gitleaks"
      },
      "location": {
        "file": "keys/slack_key",
        "commit": {
          "date": "0001-01-01T00:00:00Z",
          "sha": "0000000"
        },
        "start_line": 2,
        "end_line": 2
      },
      "identifiers": [
        {
          "type": "gitleaks_rule_id",
          "name": "Gitleaks rule ID Slack token",
          "value": "Slack token"
        }
      ]
    },
    {
      "id": "84648cad2340636d78ed396acfc322abd585bc6994e80d6e60edb13b3e688d62",
      "category": "secret_detection",
      "name": "Stripe",
      "message": "Stripe detected; please remove and revoke it if this is a leak.",
      "description": "Stripe",
      "cve": "keys/stripe_key:2cafc0970149a84f3b9e62eaf169f36f59907a3b3e31f7b82e68c69cd27f7326:Stripe",
      "severity": "Critical",
      "confidence": "Unknown",
      "raw_source_code_extract": "sk_test_4eC39HqLyjWDarjtT1zdp7dc",
      "scanner": {
        "id": "gitleaks",
        "name": "Gitleaks"
      },
      "location": {
        "file": "keys/stripe_key",
        "commit": {
          "date": "0001-01-01T00:00:00Z",
          "sha": "0000000"
        },
        "start_line": 1,
        "end_line": 1
      },
      "identifiers": [
        {
          "type": "gitleaks_rule_id",
          "name": "Gitleaks rule ID Stripe",
          "value": "Stripe"
        }
      ]
    },
    {
      "id": "b604733537c4e88abc11ddff681a807f8515bc4c9714a1d6db7607991c838c8a",
      "category": "secret_detection",
      "name": "Stripe",
      "message": "Stripe detected; please remove and revoke it if this is a leak.",
      "description": "Stripe",
      "cve": "keys/stripe_key:78a08441f4314f0a2833cfe58c62e555a162264206982cda39f6804f5048f570:Stripe",
      "severity": "Critical",
      "confidence": "Unknown",
      "raw_source_code_extract": "sk_live_4eC39HqLyjWDarjtT1zdp7dc",
      "scanner": {
        "id": "gitleaks",
        "name": "Gitleaks"
      },
      "location": {
        "file": "keys/stripe_key",
        "commit": {
          "date": "0001-01-01T00:00:00Z",
          "sha": "0000000"
        },
        "start_line": 2,
        "end_line": 2
      },
      "identifiers": [
        {
          "type": "gitleaks_rule_id",
          "name": "Gitleaks rule ID Stripe",
          "value": "Stripe"
        }
      ]
    },
    {
      "id": "1f0e54c091dd90e2ce2ddf7c20ba7012e7f735f8dcbb59408725269d31253119",
      "category": "secret_detection",
      "name": "PKCS8 private key",
      "message": "PKCS8 private key detected; please remove and revoke it if this is a leak.",
      "description": "PKCS8 private key",
      "cve": "keys/testkeys-110044-23ecb974342473e425f395ddd5f8f787ac6be90d.json:3021d90eb9437b2d8f30e8363695c4418b5e5f1870801b5c317e9398ee0f572d:PKCS8 private key",
      "severity": "Critical",
      "confidence": "Unknown",
      "raw_source_code_extract": "-----BEGIN PRIVATE KEY-----",
      "scanner": {
        "id": "gitleaks",
        "name": "Gitleaks"
      },
      "location": {
        "file": "keys/testkeys-110044-23ecb974342473e425f395ddd5f8f787ac6be90d.json",
        "commit": {
          "date": "0001-01-01T00:00:00Z",
          "sha": "0000000"
        },
        "start_line": 5,
        "end_line": 5
      },
      "identifiers": [
        {
          "type": "gitleaks_rule_id",
          "name": "Gitleaks rule ID PKCS8 private key",
          "value": "PKCS8 private key"
        }
      ]
    },
    {
      "id": "7e416c4c657ca17d2a68f786c9fd38b85aa1e9b33fc4dafdebec1296b5b3d492",
      "category": "secret_detection",
      "name": "Google (GCP) Service-account",
      "message": "Google (GCP) Service-account detected; please remove and revoke it if this is a leak.",
      "description": "Google (GCP) Service-account",
      "cve": "keys/testkeys-110044-23ecb974342473e425f395ddd5f8f787ac6be90d.json:f8c792f8e908ff42f50978a418f4e9bb365deb4022ad2d51302cd304378b6fbb:Google (GCP) Service-account",
      "severity": "Critical",
      "confidence": "Unknown",
      "raw_source_code_extract": "\"type\": \"service_account\"",
      "scanner": {
        "id": "gitleaks",
        "name": "Gitleaks"
      },
      "location": {
        "file": "keys/testkeys-110044-23ecb974342473e425f395ddd5f8f787ac6be90d.json",
        "commit": {
          "date": "0001-01-01T00:00:00Z",
          "sha": "0000000"
        },
        "start_line": 2,
        "end_line": 2
      },
      "identifiers": [
        {
          "type": "gitleaks_rule_id",
          "name": "Gitleaks rule ID Google (GCP) Service-account",
          "value": "Google (GCP) Service-account"
        }
      ]
    },
    {
      "id": "886f52964282e4d2d91f3a353befafe1b5b098fb2cbffb349bdd2dc533224963",
      "category": "secret_detection",
      "name": "Twilio API Key",
      "message": "Twilio API Key detected; please remove and revoke it if this is a leak.",
      "description": "Twilio API Key",
      "cve": "keys/twilio_key:f1661a9fc9996bb2f96465be1b4597de36ddad2a632ac785b8454e47f68ff225:Twilio API Key",
      "severity": "Critical",
      "confidence": "Unknown",
      "raw_source_code_extract": "SK0d066e24e71f21242e4ea5ba4781bb02",
      "scanner": {
        "id": "gitleaks",
        "name": "Gitleaks"
      },
      "location": {
        "file": "keys/twilio_key",
        "commit": {
          "date": "0001-01-01T00:00:00Z",
          "sha": "0000000"
        },
        "start_line": 1,
        "end_line": 1
      },
      "identifiers": [
        {
          "type": "gitleaks_rule_id",
          "name": "Gitleaks rule ID Twilio API Key",
          "value": "Twilio API Key"
        }
      ]
    },
    {
      "id": "e2083f7984b5c36b1bbb4f86689c3fd3eb2c7bf8eab3eaf448cda97276ff095b",
      "category": "secret_detection",
      "name": "AWS",
      "message": "AWS detected; please remove and revoke it if this is a leak.",
      "description": "AWS",
      "cve": "main.php:1a5d44a2dca19669d72edf4c4f1c27c4c1ca4b4408fbb17f6ce4ad452d78ddb3:AWS",
      "severity": "Critical",
      "confidence": "Unknown",
      "raw_source_code_extract": "AKIAIOSFODNN7EXAMPLE",
      "scanner": {
        "id": "gitleaks",
        "name": "Gitleaks"
      },
      "location": {
        "file": "main.php",
        "commit": {
          "date": "0001-01-01T00:00:00Z",
          "sha": "0000000"
        },
        "start_line": 10,
        "end_line": 10
      },
      "identifiers": [
        {
          "type": "gitleaks_rule_id",
          "name": "Gitleaks rule ID AWS",
          "value": "AWS"
        }
      ]
    },
    {
      "id": "67a2fa27bb567fedac1ebe0adb543ce43072cb09cd85c7a1d67e76a94312454a",
      "category": "secret_detection",
      "name": "Heroku API Key",
      "message": "Heroku API Key detected; please remove and revoke it if this is a leak.",
      "description": "Heroku API Key",
      "cve": "main.php:54767793881cfed5d45a1d28b318679f6f930fc32e84236200f56dcfd98d8b73:Heroku API Key",
      "severity": "Critical",
      "confidence": "Unknown",
      "raw_source_code_extract": "HEROKU_KEY = \"12345678-ABCD-ABCD-ABCD-1234567890AB",
      "scanner": {
        "id": "gitleaks",
        "name": "Gitleaks"
      },
      "location": {
        "file": "main.php",
        "commit": {
          "date": "0001-01-01T00:00:00Z",
          "sha": "0000000"
        },
        "start_line": 13,
        "end_line": 13
      },
      "identifiers": [
        {
          "type": "gitleaks_rule_id",
          "name": "Gitleaks rule ID Heroku API Key",
          "value": "Heroku API Key"
        }
      ]
    },
    {
      "id": "3b58a9dc63abd7a256b108ea59ba8b26252a15726dff33cdbb77bce043ed2f25",
      "category": "secret_detection",
      "name": "RSA private key",
      "message": "RSA private key detected; please remove and revoke it if this is a leak.",
      "description": "RSA private key",
      "cve": "main.php:8bcac7908eb950419537b91e19adc83ce2c9cbfdacf4f81157fdadfec11f7017:RSA private key",
      "severity": "Critical",
      "confidence": "Unknown",
      "raw_source_code_extract": "-----BEGIN RSA PRIVATE KEY-----",
      "scanner": {
        "id": "gitleaks",
        "name": "Gitleaks"
      },
      "location": {
        "file": "main.php",
        "commit": {
          "date": "0001-01-01T00:00:00Z",
          "sha": "0000000"
        },
        "start_line": 14,
        "end_line": 14
      },
      "identifiers": [
        {
          "type": "gitleaks_rule_id",
          "name": "Gitleaks rule ID RSA private key",
          "value": "RSA private key"
        }
      ]
    },
    {
      "id": "228430d048fee617b8b25c2aefde5b907aad346a76c8bf034dfc45746a87f021",
      "category": "secret_detection",
      "name": "GitLab Personal Access Token",
      "message": "GitLab Personal Access Token detected; please remove and revoke it if this is a leak.",
      "description": "GitLab Personal Access Token",
      "cve": "main.php:fb91714620c4d175f8c42063953096ac4df413fd8e16608cf96d1a03f080434a:GitLab Personal Access Token",
      "severity": "Critical",
      "confidence": "Unknown",
      "raw_source_code_extract": "glpat--8GMtG8Mf4EnMJzmAWDU",
      "scanner": {
        "id": "gitleaks",
        "name": "Gitleaks"
      },
      "location": {
        "file": "main.php",
        "commit": {
          "date": "0001-01-01T00:00:00Z",
          "sha": "0000000"
        },
        "start_line": 53,
        "end_line": 53
      },
      "identifiers": [
        {
          "type": "gitleaks_rule_id",
          "name": "Gitleaks rule ID GitLab Personal Access Token",
          "value": "GitLab Personal Access Token"
        }
      ]
    }
  ],
  "remediations": [],
  "scan": {
    "scanner": {
      "id": "gitleaks",
      "name": "Gitleaks",
      "url": "https://github.com/zricethezav/gitleaks",
      "vendor": {
        "name": "GitLab"
      },
      "version": "v7.5.0"
    },
    "type": "secret_detection",
    "start_time": "2021-09-28T18:44:37",
    "end_time": "2021-09-28T18:44:37",
    "status": "success"
  }
}
